\babel@toc {french}{}\relax 
\contentsline {section}{\numberline {I}Explication des trois grosses fonctions du projet}{1}{section.1}%
\contentsline {subsection}{\numberline {I.1}La fonction pioche\_main\_joueur}{1}{subsection.1.1}%
\contentsline {subsection}{\numberline {I.2}La fonction avancee\_coureur}{1}{subsection.1.2}%
\contentsline {subsection}{\numberline {I.3}La fonction aspiration}{2}{subsection.1.3}%
\contentsline {section}{\numberline {II}II}{2}{section.2}%
\contentsline {subsection}{\numberline {II.1}Les types de vélos}{2}{subsection.2.1}%
\contentsline {subsection}{\numberline {II.2}Les maps}{3}{subsection.2.2}%
\contentsline {section}{\numberline {III}III}{3}{section.3}%
